<svg width="60" height="60" viewBox="0 0 60 60" fill="none" xmlns="http://www.w3.org/2000/svg">
<circle cx="30" cy="30" r="30" fill="#FFE1F380" />
<g id="photo" transform="translate(15,15)">
<path id="Vector" d="M15.0001 6.70813C10.982 6.70813 7.71094 9.96038 7.71094 13.9553C7.71094 17.9502 10.982 21.2025 15.0001 21.2025C19.0182 21.2025 22.2892 17.9502 22.2892 13.9553C22.2892 9.96038 19.0182 6.70813 15.0001 6.70813ZM15.0001 20.1244C11.5784 20.1244 8.79527 17.3573 8.79527 13.9553C8.79527 10.5533 11.5784 7.78622 15.0001 7.78622C18.4218 7.78622 21.2049 10.5533 21.2049 13.9553C21.2049 17.3573 18.4218 20.1244 15.0001 20.1244Z" fill="#C60077"/>
<path id="Vector_2" d="M29.988 6.28288C29.988 4.92928 28.8795 3.83322 27.5181 3.83322H23.0361L21.259 0.29947C21.1687 0.113799 20.9819 0 20.7711 0H9.20482C9 0 8.81325 0.113799 8.71687 0.29947L6.93976 3.83322L2.46386 3.83921C1.10843 3.83921 0 4.94126 0 6.29486V23.5443C0 24.8979 1.10843 26 2.46988 26H27.5301C28.8916 26 30 24.8979 30 23.5443L29.988 6.28288ZM28.9157 23.5384C28.9157 24.299 28.2952 24.9159 27.5301 24.9159H2.46988C1.70482 24.9159 1.08434 24.299 1.08434 23.5384V6.28887C1.08434 5.52822 1.70482 4.91131 2.46988 4.91131L7.28313 4.90532C7.48795 4.90532 7.6747 4.79152 7.77108 4.60585L9.54819 1.0721H20.4458L22.2229 4.60585C22.3133 4.79152 22.5 4.90532 22.7108 4.90532H27.5301C28.3012 4.90532 28.9277 5.52223 28.9277 6.28288V23.5384H28.9157Z" fill="#C60077"/>
</g>
</svg>