<svg xmlns="http://www.w3.org/2000/svg">
<symbol id="delivery-truck">
<path d="M45.1646 25.5299H42.6353C42.3396 28.078 40.1786 30 37.6106 30C35.0422 30 32.8817 28.078 32.5857 25.5299H16.2294C15.933 28.078 13.7728 30 11.2048 30C8.63634 30 6.47614 28.078 6.17965 25.5299H0.842941C0.377342 25.5299 0 25.1531 0 24.6881V0.84213C0 0.377124 0.377342 0 0.842941 0H30.0987C30.5637 0 30.9413 0.377124 30.9413 0.84213V5.56555H38.0828C38.3584 5.56635 38.6166 5.7012 38.7741 5.9279L43.3857 12.5206L45.1897 15.0467L45.8474 15.9815C45.946 16.1221 45.9991 16.2895 45.9996 16.4613V24.663C46.0062 24.8889 45.9214 25.1082 45.7645 25.2713C45.6075 25.4347 45.3911 25.5278 45.1646 25.5299ZM37.6275 28.0558C39.4897 28.0558 40.9998 26.5478 40.9998 24.6881C40.9998 22.8278 39.4897 21.3198 37.6275 21.3198C35.7649 21.3198 34.255 22.8278 34.255 24.6881C34.255 26.5549 35.758 28.0751 37.6275 28.098V28.0558ZM11.2217 28.0558C13.0841 28.0558 14.5943 26.5478 14.5943 24.6881C14.5943 22.8278 13.0841 21.3198 11.2217 21.3198C9.35879 21.3198 7.84916 22.8278 7.84916 24.6881C7.84889 26.5549 9.35218 28.0751 11.2217 28.098V28.0558ZM1.70306 1.684V16.7732H24.5931C25.0587 16.7732 25.4363 17.1501 25.4363 17.6151C25.4363 18.0801 25.0587 18.4572 24.5931 18.4572H1.70306V23.8459H6.1963C6.49278 21.2982 8.65326 19.3764 11.2217 19.3764C13.7897 19.3764 15.9501 21.2982 16.2464 23.8459H29.2554V5.51515H23.1685C22.7029 5.51515 22.3253 5.13802 22.3253 4.67302C22.3253 4.20801 22.7029 3.83089 23.1685 3.83089H29.2554V1.684H1.70306ZM37.6442 7.24981H30.8996V23.8459H32.5857C32.8817 21.2982 35.0422 19.3764 37.6106 19.3764C40.1786 19.3764 42.3396 21.2982 42.6353 23.8459H44.3217V16.7307L44.0688 16.3686H33.7828C33.3172 16.3686 32.9398 15.992 32.9398 15.527V9.29616C32.9398 8.83115 33.3172 8.45403 33.7828 8.45403H38.5043L37.6442 7.24981ZM39.6844 10.1549H34.626V14.7015H42.8969L39.6844 10.1549Z" />
</symbol>
</svg>
