<svg width="40" height="40" viewBox="0 0 40 40" fill="none" xmlns="http://www.w3.org/2000/svg">
<g id="zoom">
<circle id="Ellipse 7" cx="20" cy="20" r="20" fill="#C60077"/>
<g id="zoom_2">
<path id="Vector" d="M29.8226 28.98L24.9623 24.1197C26.2661 22.6208 27.0554 20.6652 27.0554 18.5277C27.0554 13.8226 23.2284 10 18.5277 10C13.8226 10 10 13.8271 10 18.5277C10 23.2284 13.8271 27.0554 18.5277 27.0554C20.6652 27.0554 22.6208 26.2661 24.1197 24.9623L28.98 29.8226C29.0953 29.9379 29.2506 30 29.4013 30C29.5521 30 29.7073 29.9424 29.8226 29.8226C30.0532 29.592 30.0532 29.2106 29.8226 28.98ZM11.1929 18.5277C11.1929 14.4834 14.4834 11.1973 18.5233 11.1973C22.5676 11.1973 25.8537 14.4878 25.8537 18.5277C25.8537 22.5676 22.5676 25.8625 18.5233 25.8625C14.4834 25.8625 11.1929 22.5721 11.1929 18.5277Z" fill="white"/>
</g>
</g>
</svg>
